{
  "suggest.autoTrigger": "always",
  "suggest.minTriggerInputLength": 3,
  "suggest.noselect": false,
  "prettier.disableLanguages": [],
  "eslint.options": {
    "configFile": ".eslintrc"
  },
  "coc.preferences.formatOnSaveFiletypes": [
    "javascript",
    "typescript",
    "vue",
    "json",
    "javascriptvue",
    "typescriptvue",
    "graphql",
    "rust"
  ],
  "languageserver": {
    "haskell": {
      "command": "haskell-language-server-wrapper",
      "args": ["--lsp"],
      "rootPatterns": [
        "*.cabal",
        "stack.yaml",
        "cabal.project",
        "package.yaml",
        "hie.yaml"
      ],
      "filetypes": ["haskell", "lhaskell"]
    }
  }
}
